-------------------------------------------------------------------------------
Test set: com.baeldung.crud.UserControllerUnitTest
-------------------------------------------------------------------------------
Tests run: 7, Failures: 0, Errors: 0, Skipped: 0, Time elapsed: 0.483 s - in com.baeldung.crud.UserControllerUnitTest
